{
  "coming": [
    {
      "id": 1217023,
      "img": "http://p0.meituan.net/w.h/movie/120f2e1e6b0a67449e31107a598c5c911203737.jpg",
      "wish": 752568,
      "wishst": 0,
      "nm": "唐人街探案3",
      "comingTitle": "2020年1月25日 周六"
    },
    {
      "id": 1211269,
      "img": "http://p1.meituan.net/w.h/moviemachine/33ee262eb7bbeba3b7f5ffb2692e2073405334.jpg",
      "wish": 247268,
      "wishst": 0,
      "nm": "姜子牙",
      "comingTitle": "2020年1月25日 周六"
    },
    {
      "id": 1190122,
      "img": "http://p0.meituan.net/w.h/movie/4bfb08bfe0b8dd20776c6efc4015de6d995158.jpg",
      "wish": 207062,
      "wishst": 0,
      "nm": "叶问4",
      "comingTitle": "12月20日 周五"
    },
    {
      "id": 1217041,
      "img": "http://p1.meituan.net/w.h/movie/6d1a970c7fefb016006b0af099d8ff38867262.jpg",
      "wish": 169013,
      "wishst": 0,
      "nm": "南方车站的聚会",
      "comingTitle": "12月6日 周五"
    },
    {
      "id": 461076,
      "img": "http://p0.meituan.net/w.h/moviemachine/7c0b961c49c2cc1a5d1ed4615beb8dbf6695755.jpg",
      "wish": 159606,
      "wishst": 0,
      "nm": "紧急救援",
      "comingTitle": "2020年1月25日 周六"
    },
    {
      "id": 1217125,
      "img": "http://p0.meituan.net/w.h/movie/33ed2155753f63862b103daf1d9f35933842234.jpg",
      "wish": 116383,
      "wishst": 0,
      "nm": "勇敢者游戏2：再战巅峰",
      "comingTitle": "12月6日 周五"
    },
    {
      "id": 1250696,
      "img": "http://p1.meituan.net/w.h/movie/6573aca4bed234dc22d44a0f2d419ac9477072.jpg",
      "wish": 106038,
      "wishst": 0,
      "nm": "囧妈",
      "comingTitle": "2020年1月25日 周六"
    },
    {
      "id": 1257417,
      "img": "http://p0.meituan.net/w.h/movie/bf2a8fed75e718413273ba7fb0082f38571064.jpg",
      "wish": 92222,
      "wishst": 0,
      "nm": "若能与你共乘海浪之上",
      "comingTitle": "12月7日 周六"
    },
    {
      "id": 1217123,
      "img": "http://p0.meituan.net/w.h/movie/7176eb3a1e76980ec711d2c8dc77dd52297157.jpg",
      "wish": 91613,
      "wishst": 0,
      "nm": "中国女排",
      "comingTitle": "2020年1月25日 周六"
    },
    {
      "id": 1279731,
      "img": "http://p1.meituan.net/w.h/movie/4ce166a974522e45a39f8401433be6dd3453394.jpg",
      "wish": 76434,
      "wishst": 0,
      "nm": "宠爱",
      "comingTitle": "12月31日 周二"
    }
  ],
  "paging": {
    "hasMore": true,
    "limit": 10,
    "offset": 0,
    "total": 139
  }
}
