{
  "coming": [
    {
      "id": 1236599,
      "img": "http://p0.meituan.net/w.h/movie/f743028cd46c58c0764bb2d162925b0c1894141.jpg",
      "wish": 26778,
      "wishst": 0,
      "nm": "兰心大剧院",
      "comingTitle": "12月7日 周六"
    },
    {
      "id": 1251281,
      "img": "http://p0.meituan.net/w.h/movie/500deaf8013c5cadb46a52756ef7f6974534639.jpg",
      "wish": 25415,
      "wishst": 0,
      "nm": "被光抓走的人",
      "comingTitle": "12月13日 周五"
    },
    {
      "id": 1238837,
      "img": "http://p1.meituan.net/w.h/movie/f8498102dc076de94e78adcfe1cefb34529684.jpg",
      "wish": 24511,
      "wishst": 0,
      "nm": "天·火",
      "comingTitle": "12月12日 周四"
    },
    {
      "id": 78826,
      "img": "http://p0.meituan.net/w.h/movie/93b4feb9495595ac699aad11be6c5fad2074968.jpg",
      "wish": 22333,
      "wishst": 0,
      "nm": "龙之谷：破晓奇兵",
      "comingTitle": "2020年1月4日 周六"
    },
    {
      "id": 1218273,
      "img": "http://p0.meituan.net/w.h/moviemachine/46ef2a35b2715314ee034e11042af6631392433.png",
      "wish": 20398,
      "wishst": 0,
      "nm": "误杀",
      "comingTitle": "12月13日 周五"
    },
    {
      "id": 443387,
      "img": "http://p0.meituan.net/w.h/moviemachine/a34f5b6a7dd83a959520a9b3a88328d6186499.jpg",
      "wish": 18928,
      "wishst": 0,
      "nm": "星球大战：天行者崛起",
      "comingTitle": "12月20日 周五"
    },
    {
      "id": 489894,
      "img": "http://p1.meituan.net/w.h/movie/b3010743c85cf9451762d47cf172a4956109708.jpg",
      "wish": 16595,
      "wishst": 0,
      "nm": "我在时间尽头等你",
      "comingTitle": "2020年2月14日 周五"
    },
    {
      "id": 1203825,
      "img": "http://p0.meituan.net/w.h/movie/9282e84ad6bb1f3fcc8739561175c272397495.jpg",
      "wish": 15594,
      "wishst": 0,
      "nm": "唐顿庄园",
      "comingTitle": "12月13日 周五"
    },
    {
      "id": 1282454,
      "img": "http://p1.meituan.net/w.h/movie/258bfc30cec1e20070697ab090dfcc052620540.jpg",
      "wish": 14832,
      "wishst": 0,
      "nm": "血鲨",
      "comingTitle": "2020年2月14日 周五"
    },
    {
      "id": 1294417,
      "img": "http://p0.meituan.net/w.h/movie/582d57e86924b47279c001dca5a12adb5773823.png",
      "wish": 13678,
      "wishst": 0,
      "nm": "危险记忆",
      "comingTitle": "12月12日 周四"
    }
  ],
  "paging": {
    "hasMore": true,
    "limit": 10,
    "offset": 10,
    "total": 139
  }
}
